<svg width="16" height="17" viewBox="0 0 16 17" fill="none" xmlns="http://www.w3.org/2000/svg">
<path d="M8.10849 4.19375C7.91846 4.38378 7.91846 4.69314 8.10849 4.88318L12.4042 9.17885C12.8527 9.62742 13.1201 10.2483 13.1356 10.8825C13.151 11.5123 12.8815 12.1841 12.4329 12.6326L12.1324 12.9331C11.6993 13.3662 11.0629 13.6093 10.3779 13.6005C9.69948 13.5938 9.06309 13.3419 8.62998 12.9088L3.08803 7.36689C2.75879 7.03764 2.58643 6.59128 2.59748 6.11177C2.61074 5.63448 2.80519 5.1837 3.14328 4.84561C3.47694 4.51195 3.91888 4.32633 4.38071 4.32412C4.84475 4.32412 5.28669 4.50532 5.61815 4.83677L10.7933 10.0119C11.1711 10.3898 11.2043 11.024 10.864 11.3643C10.5635 11.6648 9.95581 11.7023 9.52933 11.2759L6.57716 8.32369C6.38713 8.13366 6.07777 8.13366 5.88773 8.32369C5.6977 8.51373 5.6977 8.82309 5.88773 9.01312L8.83991 11.9653C9.62435 12.7497 10.78 12.7785 11.5291 12.0294C11.8937 11.6648 12.0948 11.1941 12.0904 10.7035C12.0882 10.2019 11.8716 9.71139 11.4827 9.32248L6.30758 4.14734C5.79051 3.63027 5.10329 3.34522 4.37408 3.34964C3.64488 3.34964 2.95987 3.6369 2.44059 4.15618C1.92131 4.67546 1.63405 5.36047 1.62963 6.0941C1.62521 6.82772 1.90584 7.51494 2.42512 8.03422L7.96707 13.5762C8.60126 14.2104 9.51608 14.586 10.411 14.5794C11.328 14.5727 12.1744 14.2258 12.7975 13.6027L13.098 13.3022C13.7079 12.6923 14.0614 11.8217 14.0659 10.9157C14.0681 10.4671 13.9885 10.034 13.8294 9.623C13.6615 9.19432 13.414 8.81425 13.0958 8.49605L8.79571 4.19596C8.60789 4.00371 8.29853 4.00371 8.10849 4.19375Z" fill="white"/>
</svg>
