<svg width="14" height="14" viewBox="0 0 14 14" fill="none" xmlns="http://www.w3.org/2000/svg">
<path d="M12.2734 6.25H7.75V1.72656C7.75 1.31406 7.4125 0.976562 7 0.976562C6.5875 0.976562 6.25 1.31406 6.25 1.72656V6.25H1.72656C1.31406 6.25 0.976562 6.5875 0.976562 7C0.976562 7.20625 1.06094 7.39375 1.19687 7.52969C1.33281 7.66562 1.52031 7.75 1.72656 7.75H6.25V12.2734C6.25 12.4797 6.33437 12.6672 6.47031 12.8031C6.60625 12.9391 6.79375 13.0234 7 13.0234C7.4125 13.0234 7.75 12.6859 7.75 12.2734V7.75H12.2734C12.6859 7.75 13.0234 7.4125 13.0234 7C13.0234 6.5875 12.6859 6.25 12.2734 6.25Z" fill="white"/>
</svg>
