<svg width="17" height="26" viewBox="0 0 17 26" fill="none" xmlns="http://www.w3.org/2000/svg">
<path opacity="0.8" d="M16.2394 12.6445L3.3355 25.1563L0.779692 22.6772L11.126 12.6445L0.781476 2.61L3.3355 0.132652L16.2394 12.6445Z" fill="white"/>
</svg>
