<svg width="40" height="40" viewBox="0 0 40 40" fill="none" xmlns="http://www.w3.org/2000/svg">
<rect x="0.5" y="0.5" width="39" height="39" rx="7.5" fill="white" stroke="#EFEFEF"/>
<g opacity="0.3">
<path d="M26.8907 18.1719C26.2343 14.9376 23.4218 12.5 20 12.5C17.2813 12.5 14.9376 14.0468 13.7657 16.2969C10.9532 16.5782 8.75 18.9687 8.75 21.875C8.75 24.9686 11.2812 27.5 14.375 27.5H26.5625C29.1406 27.5 31.25 25.3906 31.25 22.8125C31.25 20.3282 29.3283 18.3125 26.8907 18.1719ZM18.5 20.5625V17H21.5V20.5625H24.6875L20 25.25L15.3125 20.5625H18.5Z" fill="#222222"/>
</g>
</svg>
