<svg width="19" height="22" viewBox="0 0 19 22" fill="none" xmlns="http://www.w3.org/2000/svg">
<path d="M15.6836 10.7553V4.29688C15.6836 2.8753 14.527 1.71875 13.1055 1.71875H10.2942C9.93945 0.718395 8.98369 0 7.86328 0C6.74287 0 5.78712 0.718395 5.43241 1.71875H2.57812C1.15655 1.71875 0 2.8753 0 4.29688V17.7031C0 19.1247 1.15655 20.2812 2.57812 20.2812H8.13996C8.49466 21.2815 9.45003 22 10.5708 22L16.2852 21.9968C17.7068 21.9968 18.8633 20.8404 18.8633 19.419V13.9532L15.6836 10.7553ZM15.9352 13.446H14.8242C14.3504 13.446 13.9648 13.0605 13.9648 12.5866V11.4644L15.9352 13.446ZM5.28516 3.4375H7.00391V2.57812C7.00391 2.10427 7.38942 1.71875 7.86328 1.71875C8.33714 1.71875 8.72266 2.10427 8.72266 2.57812V3.4375H10.4414V5.11328H5.28516V3.4375ZM7.99219 11.1286V18.5625H2.57812C2.10427 18.5625 1.71875 18.177 1.71875 17.7031V4.29688C1.71875 3.82302 2.10427 3.4375 2.57812 3.4375H3.56641V6.83203H12.1602V3.4375H13.1055C13.5793 3.4375 13.9648 3.82302 13.9648 4.29688V9.02683L13.4915 8.55078H10.5703C9.14873 8.55078 7.99219 9.7072 7.99219 11.1286ZM17.1445 19.419C17.1445 19.8927 16.759 20.2781 16.2847 20.2781L10.5703 20.2812C10.0965 20.2812 9.71094 19.8959 9.71094 19.4222V11.1286C9.71094 10.6549 10.0965 10.2695 10.5703 10.2695H12.2461V12.5867C12.2461 14.0082 13.4026 15.1648 14.8242 15.1648H17.1445V19.419Z" fill="#18191D" fill-opacity="0.56"/>
</svg>
